<?xml version="1.0" encoding="UTF-8" standalone="no"?>
<!-- Created with Inkscape (http://www.inkscape.org/) -->

<svg
   xmlns:dc="http://purl.org/dc/elements/1.1/"
   xmlns:cc="http://creativecommons.org/ns#"
   xmlns:rdf="http://www.w3.org/1999/02/22-rdf-syntax-ns#"
   xmlns:svg="http://www.w3.org/2000/svg"
   xmlns="http://www.w3.org/2000/svg"
   xmlns:sodipodi="http://sodipodi.sourceforge.net/DTD/sodipodi-0.dtd"
   xmlns:inkscape="http://www.inkscape.org/namespaces/inkscape"
   width="210mm"
   height="297mm"
   viewBox="0 0 210 297"
   version="1.1"
   id="svg8"
   inkscape:version="0.92.4 (unknown)"
   sodipodi:docname="Diff_part.svg">
  <defs
     id="defs2">
    <marker
       inkscape:stockid="Arrow1Mstart"
       orient="auto"
       refY="0.0"
       refX="0.0"
       id="Arrow1Mstart"
       style="overflow:visible"
       inkscape:isstock="true">
      <path
         id="path4636"
         d="M 0.0,0.0 L 5.0,-5.0 L -12.5,0.0 L 5.0,5.0 L 0.0,0.0 z "
         style="fill-rule:evenodd;stroke:#000000;stroke-width:1pt;stroke-opacity:1;fill:#000000;fill-opacity:1"
         transform="scale(0.4) translate(10,0)" />
    </marker>
    <marker
       inkscape:stockid="Arrow1Sstart"
       orient="auto"
       refY="0.0"
       refX="0.0"
       id="Arrow1Sstart"
       style="overflow:visible"
       inkscape:isstock="true">
      <path
         id="path4642"
         d="M 0.0,0.0 L 5.0,-5.0 L -12.5,0.0 L 5.0,5.0 L 0.0,0.0 z "
         style="fill-rule:evenodd;stroke:#000000;stroke-width:1pt;stroke-opacity:1;fill:#000000;fill-opacity:1"
         transform="scale(0.2) translate(6,0)" />
    </marker>
    <marker
       inkscape:stockid="Arrow1Mend"
       orient="auto"
       refY="0.0"
       refX="0.0"
       id="marker5349"
       style="overflow:visible;"
       inkscape:isstock="true">
      <path
         id="path5347"
         d="M 0.0,0.0 L 5.0,-5.0 L -12.5,0.0 L 5.0,5.0 L 0.0,0.0 z "
         style="fill-rule:evenodd;stroke:#000000;stroke-width:1pt;stroke-opacity:1;fill:#000000;fill-opacity:1"
         transform="scale(0.4) rotate(180) translate(10,0)" />
    </marker>
    <marker
       inkscape:stockid="Arrow1Send"
       orient="auto"
       refY="0.0"
       refX="0.0"
       id="marker5309"
       style="overflow:visible;"
       inkscape:isstock="true">
      <path
         id="path5307"
         d="M 0.0,0.0 L 5.0,-5.0 L -12.5,0.0 L 5.0,5.0 L 0.0,0.0 z "
         style="fill-rule:evenodd;stroke:#000000;stroke-width:1pt;stroke-opacity:1;fill:#000000;fill-opacity:1"
         transform="scale(0.2) rotate(180) translate(6,0)" />
    </marker>
    <marker
       inkscape:stockid="Arrow1Send"
       orient="auto"
       refY="0.0"
       refX="0.0"
       id="marker5174"
       style="overflow:visible;"
       inkscape:isstock="true">
      <path
         id="path5172"
         d="M 0.0,0.0 L 5.0,-5.0 L -12.5,0.0 L 5.0,5.0 L 0.0,0.0 z "
         style="fill-rule:evenodd;stroke:#000000;stroke-width:1pt;stroke-opacity:1;fill:#000000;fill-opacity:1"
         transform="scale(0.2) rotate(180) translate(6,0)" />
    </marker>
    <marker
       inkscape:stockid="Arrow1Send"
       orient="auto"
       refY="0.0"
       refX="0.0"
       id="Arrow1Send"
       style="overflow:visible;"
       inkscape:isstock="true">
      <path
         id="path4645"
         d="M 0.0,0.0 L 5.0,-5.0 L -12.5,0.0 L 5.0,5.0 L 0.0,0.0 z "
         style="fill-rule:evenodd;stroke:#000000;stroke-width:1pt;stroke-opacity:1;fill:#000000;fill-opacity:1"
         transform="scale(0.2) rotate(180) translate(6,0)" />
    </marker>
    <marker
       inkscape:stockid="Arrow1Mend"
       orient="auto"
       refY="0.0"
       refX="0.0"
       id="Arrow1Mend"
       style="overflow:visible;"
       inkscape:isstock="true">
      <path
         id="path4639"
         d="M 0.0,0.0 L 5.0,-5.0 L -12.5,0.0 L 5.0,5.0 L 0.0,0.0 z "
         style="fill-rule:evenodd;stroke:#000000;stroke-width:1pt;stroke-opacity:1;fill:#000000;fill-opacity:1"
         transform="scale(0.4) rotate(180) translate(10,0)" />
    </marker>
    <marker
       inkscape:stockid="Arrow1Mstart"
       orient="auto"
       refY="0"
       refX="0"
       id="Arrow1Mstart-7"
       style="overflow:visible"
       inkscape:isstock="true">
      <path
         inkscape:connector-curvature="0"
         id="path4636-0"
         d="M 0,0 5,-5 -12.5,0 5,5 Z"
         style="fill:#000000;fill-opacity:1;fill-rule:evenodd;stroke:#000000;stroke-width:1.00000003pt;stroke-opacity:1"
         transform="matrix(0.4,0,0,0.4,4,0)" />
    </marker>
  </defs>
  <sodipodi:namedview
     id="base"
     pagecolor="#ffffff"
     bordercolor="#666666"
     borderopacity="1.0"
     inkscape:pageopacity="0.0"
     inkscape:pageshadow="2"
     inkscape:zoom="4"
     inkscape:cx="434.40301"
     inkscape:cy="706.88385"
     inkscape:document-units="mm"
     inkscape:current-layer="layer1"
     showgrid="true"
     showguides="true"
     inkscape:window-width="1920"
     inkscape:window-height="1029"
     inkscape:window-x="0"
     inkscape:window-y="25"
     inkscape:window-maximized="1">
    <inkscape:grid
       type="xygrid"
       id="grid4543" />
  </sodipodi:namedview>
  <metadata
     id="metadata5">
    <rdf:RDF>
      <cc:Work
         rdf:about="">
        <dc:format>image/svg+xml</dc:format>
        <dc:type
           rdf:resource="http://purl.org/dc/dcmitype/StillImage" />
        <dc:title></dc:title>
      </cc:Work>
    </rdf:RDF>
  </metadata>
  <g
     inkscape:label="Calque 1"
     inkscape:groupmode="layer"
     id="layer1">
    <path
       style="fill:none;stroke:#000000;stroke-width:0.15764888px;stroke-linecap:butt;stroke-linejoin:miter;stroke-opacity:1;marker-end:url(#Arrow1Mstart)"
       d="m 84.666667,108.91204 c 60.894653,0.34214 60.854163,0.34214 60.854163,0.34214"
       id="path3713"
       inkscape:connector-curvature="0"
       inkscape:export-xdpi="206.39999"
       inkscape:export-ydpi="206.39999" />
    <path
       style="fill:none;stroke:#000000;stroke-width:0.24700291px;stroke-linecap:butt;stroke-linejoin:miter;stroke-opacity:1"
       d="m 100.54167,107.82292 c 0,2.64583 0,2.64583 0,2.64583"
       id="path4520-6"
       inkscape:connector-curvature="0"
       sodipodi:nodetypes="cc"
       inkscape:export-xdpi="206.39999"
       inkscape:export-ydpi="206.39999" />
    <path
       style="fill:none;stroke:#000000;stroke-width:0.24700293px;stroke-linecap:butt;stroke-linejoin:miter;stroke-opacity:1"
       d="m 107.15625,107.82292 c 0,2.64583 0,2.64583 0,2.64583"
       id="path4520-6-7"
       inkscape:connector-curvature="0"
       sodipodi:nodetypes="cc"
       inkscape:export-xdpi="206.39999"
       inkscape:export-ydpi="206.39999" />
    <path
       style="fill:none;stroke:#000000;stroke-width:0.24700293px;stroke-linecap:butt;stroke-linejoin:miter;stroke-opacity:1"
       d="m 113.77083,107.82292 c 0,2.64583 0,2.64583 0,2.64583"
       id="path4520-6-5"
       inkscape:connector-curvature="0"
       sodipodi:nodetypes="cc"
       inkscape:export-xdpi="206.39999"
       inkscape:export-ydpi="206.39999" />
    <path
       style="fill:none;stroke:#000000;stroke-width:0.24700293px;stroke-linecap:butt;stroke-linejoin:miter;stroke-opacity:1"
       d="m 120.38542,107.82292 c 0,2.64583 0,2.64583 0,2.64583"
       id="path4520-6-3"
       inkscape:connector-curvature="0"
       sodipodi:nodetypes="cc"
       inkscape:export-xdpi="206.39999"
       inkscape:export-ydpi="206.39999" />
    <path
       style="fill:none;stroke:#000000;stroke-width:0.24700293px;stroke-linecap:butt;stroke-linejoin:miter;stroke-opacity:1"
       d="m 93.927083,107.82292 c 0,2.64583 0,2.64583 0,2.64583"
       id="path4520-6-56"
       inkscape:connector-curvature="0"
       sodipodi:nodetypes="cc"
       inkscape:export-xdpi="206.39999"
       inkscape:export-ydpi="206.39999" />
    <path
       style="fill:none;stroke:#000000;stroke-width:0.24700293px;stroke-linecap:butt;stroke-linejoin:miter;stroke-opacity:1"
       d="m 87.3125,107.82292 c 0,2.64583 0,2.64583 0,2.64583"
       id="path4520-6-2"
       inkscape:connector-curvature="0"
       sodipodi:nodetypes="cc"
       inkscape:export-xdpi="206.39999"
       inkscape:export-ydpi="206.39999" />
    <path
       style="fill:none;stroke:#000000;stroke-width:0.24700293px;stroke-linecap:butt;stroke-linejoin:miter;stroke-opacity:1"
       d="m 127,107.82292 c 0,2.64583 0,2.64583 0,2.64583"
       id="path4520-6-9"
       inkscape:connector-curvature="0"
       sodipodi:nodetypes="cc"
       inkscape:export-xdpi="206.39999"
       inkscape:export-ydpi="206.39999" />
    <path
       style="fill:none;stroke:#000000;stroke-width:0.24700294px;stroke-linecap:butt;stroke-linejoin:miter;stroke-opacity:1"
       d="m 133.61458,107.82292 c 0,2.64583 0,2.64583 0,2.64583"
       id="path4520-6-9-1"
       inkscape:connector-curvature="0"
       sodipodi:nodetypes="cc"
       inkscape:export-xdpi="206.39999"
       inkscape:export-ydpi="206.39999" />
    <path
       style="fill:none;stroke:#000000;stroke-width:0.24700296px;stroke-linecap:butt;stroke-linejoin:miter;stroke-opacity:1"
       d="m 140.22917,107.82292 c 0,2.64583 0,2.64583 0,2.64583"
       id="path4520-6-9-1-2"
       inkscape:connector-curvature="0"
       sodipodi:nodetypes="cc"
       inkscape:export-xdpi="206.39999"
       inkscape:export-ydpi="206.39999" />
    <path
       style="fill:none;stroke:#000000;stroke-width:0.26458332;stroke-linecap:butt;stroke-linejoin:miter;stroke-opacity:1;stroke-miterlimit:4;stroke-dasharray:0.26458332, 0.26458332000000001;stroke-dashoffset:0;marker-end:url(#marker5174)"
       d="m 127,106.5 c -6.61458,-7.9375 -6.61458,0 -6.61458,0"
       id="path4626"
       inkscape:connector-curvature="0"
       inkscape:export-xdpi="206.39999"
       inkscape:export-ydpi="206.39999" />
    <path
       style="fill:none;stroke:#000000;stroke-width:0.28008246;stroke-linecap:butt;stroke-linejoin:miter;stroke-miterlimit:2.70000005;stroke-dasharray:0.28008246, 0.28008246;stroke-dashoffset:0;stroke-opacity:1;marker-end:url(#Arrow1Send)"
       d="m 127.0152,106.45884 c 6.58526,-7.421849 6.58526,0 6.58526,0"
       id="path4628"
       inkscape:connector-curvature="0"
       inkscape:export-xdpi="206.39999"
       inkscape:export-ydpi="206.39999" />
    <text
       xml:space="preserve"
       style="font-style:normal;font-weight:normal;font-size:10.58333302px;line-height:1.25;font-family:sans-serif;letter-spacing:0px;word-spacing:0px;fill:#000000;fill-opacity:1;stroke:none;stroke-width:0.26458332"
       x="126.66927"
       y="112.78386"
       id="text5294"
       inkscape:export-xdpi="206.39999"
       inkscape:export-ydpi="206.39999"><tspan
         sodipodi:role="line"
         id="tspan5292"
         x="126.66927"
         y="112.78386"
         style="font-size:2.11666656px;stroke-width:0.26458332">i</tspan></text>
    <text
       xml:space="preserve"
       style="font-style:normal;font-weight:normal;font-size:2.11666656px;line-height:1.25;font-family:sans-serif;letter-spacing:0px;word-spacing:0px;fill:#000000;fill-opacity:1;stroke:none;stroke-width:0.26458332"
       x="132.19244"
       y="112.75077"
       id="text5301"
       inkscape:export-xdpi="206.39999"
       inkscape:export-ydpi="206.39999"><tspan
         sodipodi:role="line"
         id="tspan5299"
         x="132.19244"
         y="112.75077"
         style="stroke-width:0.26458332">i+1</tspan></text>
    <text
       xml:space="preserve"
       style="font-style:normal;font-weight:normal;font-size:2.11666656px;line-height:1.25;font-family:sans-serif;letter-spacing:0px;word-spacing:0px;fill:#000000;fill-opacity:1;stroke:none;stroke-width:0.26458332"
       x="119.19479"
       y="112.84999"
       id="text5305"
       inkscape:export-xdpi="206.39999"
       inkscape:export-ydpi="206.39999"><tspan
         sodipodi:role="line"
         id="tspan5303"
         x="119.19479"
         y="112.84999"
         style="stroke-width:0.26458332">i-1</tspan></text>
    <path
       style="fill:none;stroke:#000000;stroke-width:0.15764889px;stroke-linecap:butt;stroke-linejoin:miter;stroke-opacity:1;marker-end:url(#Arrow1Mstart-7)"
       d="m 84.666674,116.84954 c 60.894656,0.34214 60.854156,0.34214 60.854156,0.34214"
       id="path3713-9"
       inkscape:connector-curvature="0"
       inkscape:export-xdpi="206.39999"
       inkscape:export-ydpi="206.39999" />
    <path
       style="fill:none;stroke:#000000;stroke-width:0.24700293px;stroke-linecap:butt;stroke-linejoin:miter;stroke-opacity:1"
       d="m 100.54168,115.76042 c 0,2.64583 0,2.64583 0,2.64583"
       id="path4520-6-36"
       inkscape:connector-curvature="0"
       sodipodi:nodetypes="cc"
       inkscape:export-xdpi="206.39999"
       inkscape:export-ydpi="206.39999" />
    <path
       style="fill:none;stroke:#000000;stroke-width:0.24700294px;stroke-linecap:butt;stroke-linejoin:miter;stroke-opacity:1"
       d="m 107.15625,115.76042 c 0,2.64583 0,2.64583 0,2.64583"
       id="path4520-6-7-0"
       inkscape:connector-curvature="0"
       sodipodi:nodetypes="cc"
       inkscape:export-xdpi="206.39999"
       inkscape:export-ydpi="206.39999" />
    <path
       style="fill:none;stroke:#000000;stroke-width:0.24700294px;stroke-linecap:butt;stroke-linejoin:miter;stroke-opacity:1"
       d="m 113.77083,115.76042 c 0,2.64583 0,2.64583 0,2.64583"
       id="path4520-6-5-6"
       inkscape:connector-curvature="0"
       sodipodi:nodetypes="cc"
       inkscape:export-xdpi="206.39999"
       inkscape:export-ydpi="206.39999" />
    <path
       style="fill:none;stroke:#000000;stroke-width:0.24700294px;stroke-linecap:butt;stroke-linejoin:miter;stroke-opacity:1"
       d="m 120.38543,115.76042 c 0,2.64583 0,2.64583 0,2.64583"
       id="path4520-6-3-2"
       inkscape:connector-curvature="0"
       sodipodi:nodetypes="cc"
       inkscape:export-xdpi="206.39999"
       inkscape:export-ydpi="206.39999" />
    <path
       style="fill:none;stroke:#000000;stroke-width:0.24700294px;stroke-linecap:butt;stroke-linejoin:miter;stroke-opacity:1"
       d="m 93.92709,115.76042 c 0,2.64583 0,2.64583 0,2.64583"
       id="path4520-6-56-6"
       inkscape:connector-curvature="0"
       sodipodi:nodetypes="cc"
       inkscape:export-xdpi="206.39999"
       inkscape:export-ydpi="206.39999" />
    <path
       style="fill:none;stroke:#000000;stroke-width:0.24700294px;stroke-linecap:butt;stroke-linejoin:miter;stroke-opacity:1"
       d="m 87.312507,115.76042 c 0,2.64583 0,2.64583 0,2.64583"
       id="path4520-6-2-1"
       inkscape:connector-curvature="0"
       sodipodi:nodetypes="cc"
       inkscape:export-xdpi="206.39999"
       inkscape:export-ydpi="206.39999" />
    <path
       style="fill:none;stroke:#000000;stroke-width:0.24700294px;stroke-linecap:butt;stroke-linejoin:miter;stroke-opacity:1"
       d="m 127,115.76042 c 0,2.64583 0,2.64583 0,2.64583"
       id="path4520-6-9-8"
       inkscape:connector-curvature="0"
       sodipodi:nodetypes="cc"
       inkscape:export-xdpi="206.39999"
       inkscape:export-ydpi="206.39999" />
    <path
       style="fill:none;stroke:#000000;stroke-width:0.24700296px;stroke-linecap:butt;stroke-linejoin:miter;stroke-opacity:1"
       d="m 133.61458,115.76042 c 0,2.64583 0,2.64583 0,2.64583"
       id="path4520-6-9-1-7"
       inkscape:connector-curvature="0"
       sodipodi:nodetypes="cc"
       inkscape:export-xdpi="206.39999"
       inkscape:export-ydpi="206.39999" />
    <path
       style="fill:none;stroke:#000000;stroke-width:0.24700297px;stroke-linecap:butt;stroke-linejoin:miter;stroke-opacity:1"
       d="m 140.22918,115.76042 c 0,2.64583 0,2.64583 0,2.64583"
       id="path4520-6-9-1-2-9"
       inkscape:connector-curvature="0"
       sodipodi:nodetypes="cc"
       inkscape:export-xdpi="206.39999"
       inkscape:export-ydpi="206.39999" />
    <flowRoot
       xml:space="preserve"
       id="flowRoot5923"
       style="font-style:normal;font-weight:normal;font-size:8px;line-height:1.25;font-family:sans-serif;letter-spacing:0px;word-spacing:0px;fill:#000000;fill-opacity:1;stroke:none"
       transform="scale(0.26458333)"
       inkscape:export-xdpi="206.39999"
       inkscape:export-ydpi="206.39999"><flowRegion
         id="flowRegion5925"><rect
           id="rect5927"
           width="10"
           height="10"
           x="425"
           y="397.51968" /></flowRegion><flowPara
         id="flowPara5929">O</flowPara></flowRoot>    <flowRoot
       xml:space="preserve"
       id="flowRoot5931"
       style="font-style:normal;font-weight:normal;font-size:8px;line-height:1.25;font-family:sans-serif;letter-spacing:0px;word-spacing:0px;fill:#000000;fill-opacity:1;stroke:none"
       transform="scale(0.26458333)"
       inkscape:export-xdpi="206.39999"
       inkscape:export-ydpi="206.39999"><flowRegion
         id="flowRegion5933"><rect
           id="rect5935"
           width="15"
           height="10"
           x="425"
           y="452.51968" /></flowRegion><flowPara
         id="flowPara5937">O</flowPara></flowRoot>    <flowRoot
       xml:space="preserve"
       id="flowRoot5939"
       style="font-style:normal;font-weight:normal;font-size:8px;line-height:1.25;font-family:sans-serif;letter-spacing:0px;word-spacing:0px;fill:#000000;fill-opacity:1;stroke:none"
       transform="scale(0.26458333)"
       inkscape:export-xdpi="206.39999"
       inkscape:export-ydpi="206.39999"><flowRegion
         id="flowRegion5941"><rect
           id="rect5943"
           width="15"
           height="10"
           x="545"
           y="447.51968" /></flowRegion><flowPara
         id="flowPara5945">x</flowPara></flowRoot>    <flowRoot
       xml:space="preserve"
       id="flowRoot5947"
       style="font-style:normal;font-weight:normal;font-size:8px;line-height:1.25;font-family:sans-serif;letter-spacing:0px;word-spacing:0px;fill:#000000;fill-opacity:1;stroke:none"
       transform="matrix(0.26458333,0,0,0.26458333,0.66145833,-0.66145833)"
       inkscape:export-xdpi="206.39999"
       inkscape:export-ydpi="206.39999"><flowRegion
         id="flowRegion5949"><rect
           id="rect5951"
           width="15"
           height="10"
           x="475"
           y="452.51968" /></flowRegion><flowPara
         id="flowPara5953">x<flowSpan
   style="font-size:64.99999762%;baseline-shift:sub"
   id="flowSpan5955">i</flowSpan></flowPara></flowRoot>    <flowRoot
       xml:space="preserve"
       id="flowRoot5947-2"
       style="font-style:normal;font-weight:normal;font-size:8px;line-height:1.25;font-family:sans-serif;letter-spacing:0px;word-spacing:0px;fill:#000000;fill-opacity:1;stroke:none"
       transform="matrix(0.26458333,0,0,0.26458333,6.9453118,-0.66145714)"
       inkscape:export-xdpi="206.39999"
       inkscape:export-ydpi="206.39999"><flowRegion
         id="flowRegion5949-0"><rect
           id="rect5951-2"
           width="15"
           height="10"
           x="475"
           y="452.51968" /></flowRegion><flowPara
         id="flowPara5953-3">x<flowSpan
   style="font-size:64.99999762%;baseline-shift:sub"
   id="flowSpan5955-7">i+1</flowSpan></flowPara></flowRoot>    <flowRoot
       xml:space="preserve"
       id="flowRoot5947-5"
       style="font-style:normal;font-weight:normal;font-size:8px;line-height:1.25;font-family:sans-serif;letter-spacing:0px;word-spacing:0px;fill:#000000;fill-opacity:1;stroke:none"
       transform="matrix(0.26458333,0,0,0.26458333,-7.2760424,-0.66145714)"
       inkscape:export-xdpi="206.39999"
       inkscape:export-ydpi="206.39999"><flowRegion
         id="flowRegion5949-9"><rect
           id="rect5951-22"
           width="15"
           height="10"
           x="475"
           y="452.51968" /></flowRegion><flowPara
         id="flowPara5953-8">x<flowSpan
   style="font-size:64.99999762%;baseline-shift:sub"
   id="flowSpan5955-9">i-1</flowSpan></flowPara></flowRoot>    <flowRoot
       transform="matrix(0.26458333,0,0,0.26458333,0.06614534,-7.8052072)"
       xml:space="preserve"
       id="flowRoot5939-7"
       style="font-style:normal;font-weight:normal;font-size:8px;line-height:1.25;font-family:sans-serif;letter-spacing:0px;word-spacing:0px;fill:#000000;fill-opacity:1;stroke:none"
       inkscape:export-xdpi="206.39999"
       inkscape:export-ydpi="206.39999"><flowRegion
         id="flowRegion5941-3"><rect
           id="rect5943-6"
           width="15"
           height="10"
           x="545"
           y="447.51968" /></flowRegion><flowPara
         id="flowPara5945-1">N</flowPara></flowRoot>    <text
       xml:space="preserve"
       style="font-style:normal;font-weight:normal;font-size:2.11666656px;line-height:1.25;font-family:sans-serif;letter-spacing:0px;word-spacing:0px;fill:#000000;fill-opacity:1;stroke:none;stroke-width:0.26458332"
       x="129.1828"
       y="102.4651"
       id="text6047"
       inkscape:export-xdpi="206.39999"
       inkscape:export-ydpi="206.39999"><tspan
         sodipodi:role="line"
         id="tspan6045"
         x="129.1828"
         y="102.4651"
         style="font-size:1.41111112px;writing-mode:lr-tb;direction:ltr;stroke-width:0.26458332">1/2</tspan></text>
    <text
       xml:space="preserve"
       style="font-style:normal;font-weight:normal;font-size:2.11666656px;line-height:1.25;font-family:sans-serif;letter-spacing:0px;word-spacing:0px;fill:#000000;fill-opacity:1;stroke:none;stroke-width:0.26458332"
       x="122.50208"
       y="102.4651"
       id="text6047-2"
       inkscape:export-xdpi="206.39999"
       inkscape:export-ydpi="206.39999"><tspan
         sodipodi:role="line"
         id="tspan6045-9"
         x="122.50208"
         y="102.4651"
         style="font-size:1.41111112px;writing-mode:lr-tb;direction:ltr;stroke-width:0.26458332">1/2</tspan></text>
  </g>
</svg>
